<?xml version="1.0" encoding="UTF-8" standalone="no"?>
<!-- Created with Inkscape (http://www.inkscape.org/) -->

<svg
   xmlns:dc="http://purl.org/dc/elements/1.1/"
   xmlns:cc="http://creativecommons.org/ns#"
   xmlns:rdf="http://www.w3.org/1999/02/22-rdf-syntax-ns#"
   xmlns:svg="http://www.w3.org/2000/svg"
   xmlns="http://www.w3.org/2000/svg"
   xmlns:xlink="http://www.w3.org/1999/xlink"
   xmlns:sodipodi="http://sodipodi.sourceforge.net/DTD/sodipodi-0.dtd"
   xmlns:inkscape="http://www.inkscape.org/namespaces/inkscape"
   inkscape:version="0.92.2 2405546, 2018-03-11"
   sodipodi:docname="Conform__BarLaboratoryRotate.svg"
   id="svg8"
   version="1.1"
   viewBox="0 0 412.13148 258.97769"
   height="258.97769mm"
   width="412.13147mm">
  <sodipodi:namedview
     inkscape:window-maximized="0"
     inkscape:window-y="68"
     inkscape:window-x="15"
     inkscape:window-height="1117"
     inkscape:window-width="1890"
     showgrid="false"
     inkscape:document-units="mm"
     inkscape:cy="205.15345"
     inkscape:cx="706.977"
     inkscape:zoom="1.9261403"
     inkscape:pageshadow="2"
     inkscape:pageopacity="0.0"
     borderopacity="1.0"
     bordercolor="#666666"
     pagecolor="#ffffff"
     id="base"
     inkscape:current-layer="layer1" />
  <defs
     id="defs2">
    <marker
       inkscape:isstock="true"
       style="overflow:visible"
       id="marker1765"
       refX="0"
       refY="0"
       orient="auto"
       inkscape:stockid="Arrow2Mstart">
      <path
         transform="scale(0.6)"
         d="M 8.7185878,4.0337352 -2.2072895,0.01601326 8.7185884,-4.0017078 c -1.7454984,2.3720609 -1.7354408,5.6174519 -6e-7,8.035443 z"
         style="fill:#808080;fill-opacity:1;fill-rule:evenodd;stroke:#808080;stroke-width:0.625;stroke-linejoin:round;stroke-opacity:1"
         id="path1763"
         inkscape:connector-curvature="0" />
    </marker>
    <marker
       inkscape:stockid="Arrow1Sstart"
       orient="auto"
       refY="0"
       refX="0"
       id="Arrow1Sstart"
       style="overflow:visible"
       inkscape:isstock="true">
      <path
         id="path1439"
         d="M 0,0 5,-5 -12.5,0 5,5 Z"
         style="fill:#808080;fill-opacity:1;fill-rule:evenodd;stroke:#808080;stroke-width:1.00000003pt;stroke-opacity:1"
         transform="matrix(0.2,0,0,0.2,1.2,0)"
         inkscape:connector-curvature="0" />
    </marker>
    <marker
       inkscape:isstock="true"
       style="overflow:visible"
       id="marker8494"
       refX="0"
       refY="0"
       orient="auto"
       inkscape:stockid="Arrow2Mend">
      <path
         transform="scale(-0.6)"
         d="M 8.7185878,4.0337352 -2.2072895,0.01601326 8.7185884,-4.0017078 c -1.7454984,2.3720609 -1.7354408,5.6174519 -6e-7,8.035443 z"
         style="fill:#000000;fill-opacity:1;fill-rule:evenodd;stroke:#000000;stroke-width:0.625;stroke-linejoin:round;stroke-opacity:1"
         id="path8492"
         inkscape:connector-curvature="0" />
    </marker>
    <marker
       inkscape:isstock="true"
       style="overflow:visible"
       id="Arrow1Lstart"
       refX="0"
       refY="0"
       orient="auto"
       inkscape:stockid="Arrow1Lstart">
      <path
         transform="matrix(0.8,0,0,0.8,10,0)"
         style="fill:#000000;fill-opacity:1;fill-rule:evenodd;stroke:#000000;stroke-width:1.00000003pt;stroke-opacity:1"
         d="M 0,0 5,-5 -12.5,0 5,5 Z"
         id="path4996"
         inkscape:connector-curvature="0" />
    </marker>
    <marker
       inkscape:stockid="Arrow2Mstart"
       orient="auto"
       refY="0"
       refX="0"
       id="Arrow2Mstart"
       style="overflow:visible"
       inkscape:isstock="true"
       inkscape:collect="always">
      <path
         id="path5020"
         style="fill:#000000;fill-opacity:1;fill-rule:evenodd;stroke:#000000;stroke-width:0.625;stroke-linejoin:round;stroke-opacity:1"
         d="M 8.7185878,4.0337352 -2.2072895,0.01601326 8.7185884,-4.0017078 c -1.7454984,2.3720609 -1.7354408,5.6174519 -6e-7,8.035443 z"
         transform="scale(0.6)"
         inkscape:connector-curvature="0" />
    </marker>
    <marker
       inkscape:stockid="Arrow2Mend"
       orient="auto"
       refY="0"
       refX="0"
       id="Arrow2Mend"
       style="overflow:visible"
       inkscape:isstock="true">
      <path
         id="path5023"
         style="fill:#000000;fill-opacity:1;fill-rule:evenodd;stroke:#000000;stroke-width:0.625;stroke-linejoin:round;stroke-opacity:1"
         d="M 8.7185878,4.0337352 -2.2072895,0.01601326 8.7185884,-4.0017078 c -1.7454984,2.3720609 -1.7354408,5.6174519 -6e-7,8.035443 z"
         transform="scale(-0.6)"
         inkscape:connector-curvature="0" />
    </marker>
    <marker
       inkscape:stockid="Arrow2Send"
       orient="auto"
       refY="0"
       refX="0"
       id="Arrow2Send"
       style="overflow:visible"
       inkscape:isstock="true">
      <path
         id="path5029"
         style="fill:#808080;fill-opacity:1;fill-rule:evenodd;stroke:#808080;stroke-width:0.625;stroke-linejoin:round;stroke-opacity:1"
         d="M 8.7185878,4.0337352 -2.2072895,0.01601326 8.7185884,-4.0017078 c -1.7454984,2.3720609 -1.7354408,5.6174519 -6e-7,8.035443 z"
         transform="matrix(-0.3,0,0,-0.3,0.69,0)"
         inkscape:connector-curvature="0" />
    </marker>
    <marker
       inkscape:isstock="true"
       style="overflow:visible"
       id="marker8494-3"
       refX="0"
       refY="0"
       orient="auto"
       inkscape:stockid="Arrow2Mend">
      <path
         inkscape:connector-curvature="0"
         transform="scale(-0.6)"
         d="M 8.7185878,4.0337352 -2.2072895,0.01601326 8.7185884,-4.0017078 c -1.7454984,2.3720609 -1.7354408,5.6174519 -6e-7,8.035443 z"
         style="fill:#000000;fill-opacity:1;fill-rule:evenodd;stroke:#000000;stroke-width:0.625;stroke-linejoin:round;stroke-opacity:1"
         id="path8492-6" />
    </marker>
    <marker
       inkscape:isstock="true"
       style="overflow:visible"
       id="Arrow2Mend-6"
       refX="0"
       refY="0"
       orient="auto"
       inkscape:stockid="Arrow2Mend">
      <path
         inkscape:connector-curvature="0"
         transform="scale(-0.6)"
         d="M 8.7185878,4.0337352 -2.2072895,0.01601326 8.7185884,-4.0017078 c -1.7454984,2.3720609 -1.7354408,5.6174519 -6e-7,8.035443 z"
         style="fill:#808080;fill-opacity:1;fill-rule:evenodd;stroke:#808080;stroke-width:0.625;stroke-linejoin:round;stroke-opacity:1"
         id="path3223" />
    </marker>
  </defs>
  <metadata
     id="metadata5">
    <rdf:RDF>
      <cc:Work
         rdf:about="">
        <dc:format>image/svg+xml</dc:format>
        <dc:type
           rdf:resource="http://purl.org/dc/dcmitype/StillImage" />
        <dc:title />
      </cc:Work>
    </rdf:RDF>
  </metadata>
  <g
     inkscape:label="Layer 1"
     inkscape:groupmode="layer"
     id="layer1"
     transform="translate(119.00044,61.238739)">
    <g
       id="g1982"
       transform="matrix(0.92429976,0,0,0.92429976,81.457533,24.483569)"
       style="fill:#808080;fill-opacity:1;stroke-width:1.08190012">
      <g
         id="g1980"
         transform="matrix(0.36996813,0,0,-0.36996813,-64.744422,194.23327)"
         xml:space="preserve"
         stroke-miterlimit="10.433"
         font-style="normal"
         font-variant="normal"
         font-weight="normal"
         font-stretch="normal"
         font-size-adjust="none"
         letter-spacing="normal"
         word-spacing="normal"
         style="font-style:normal;font-variant:normal;font-weight:normal;font-stretch:normal;letter-spacing:normal;word-spacing:normal;text-anchor:start;fill:#808080;fill-opacity:1;fill-rule:evenodd;stroke:#000000;stroke-width:1.08190012;stroke-linecap:butt;stroke-linejoin:miter;stroke-miterlimit:10.43299961;stroke-dasharray:none;stroke-dashoffset:0;stroke-opacity:1"><polygon
           points="463.76,436.56 481.74,436.56 481.74,438.11 463.76,438.11 "
           id="polygon1972"
           style="fill:#808080;fill-opacity:1;stroke-width:0" /><path
           d="m 458.01,410.59 v -0.18 L 458,410.23 v -0.17 l -0.01,-0.18 -0.01,-0.17 -0.02,-0.17 -0.02,-0.17 -0.02,-0.18 -0.02,-0.19 -0.02,-0.1 -0.01,-0.09 -0.02,-0.11 -0.02,-0.1 -0.01,-0.11 -0.02,-0.11 -0.02,-0.12 -0.02,-0.11 -0.03,-0.13 -0.02,-0.12 -0.03,-0.14 -0.02,-0.13 -0.03,-0.14 -0.03,-0.15 c -0.09,-0.59 -0.14,-0.73 -0.19,-1.09 0.75,-0.39 1.55,-0.6 2.14,-0.6 1.65,0 3.58,1.44 5.13,3.78 l 3.8,5.83 0.54,-3.44 c 0.64,-4.23 1.78,-6.17 3.58,-6.17 1.1,0 2.69,0.85 4.28,2.3 l 2.46,2.19 -0.46,0.93 c -1.79,-1.48 -3.04,-2.23 -3.84,-2.23 -0.74,0 -1.39,0.5 -1.89,1.5 -0.44,0.94 -0.99,2.78 -1.24,4.23 l -0.9,5.04 1.75,2.43 c 2.34,3.24 3.69,4.39 5.23,4.39 0.8,0 1.39,-0.4 1.64,-1.15 l 0.69,0.2 0.75,4.23 c -0.59,0.35 -1.05,0.5 -1.48,0.5 -2,0 -3.99,-1.79 -7.08,-6.37 l -1.85,-2.75 -0.29,2.39 c -0.61,4.94 -1.96,6.73 -4.89,6.73 -1.3,0 -2.39,-0.4 -2.85,-1.04 l -2.87,-4.14 0.84,-0.5 c 1.49,1.7 2.49,2.39 3.44,2.39 1.64,0 2.73,-2.03 3.58,-6.92 l 0.54,-3.08 -1.98,-3.1 c -2.14,-3.34 -3.84,-4.93 -5.23,-4.93 -0.75,0 -1.3,0.2 -1.4,0.45 l -0.54,1.39 z"
           id="path1974"
           inkscape:connector-curvature="0"
           style="fill:#808080;fill-opacity:1;stroke-width:0" /><path
           d="m 494.99,439.95 v 0.12 l -0.01,0.12 -0.02,0.12 -0.03,0.11 -0.03,0.11 -0.04,0.11 -0.05,0.11 -0.05,0.1 -0.06,0.11 -0.07,0.09 -0.07,0.1 -0.07,0.09 -0.08,0.09 -0.09,0.08 -0.09,0.08 -0.09,0.08 -0.09,0.07 -0.1,0.07 -0.1,0.06 -0.11,0.06 -0.11,0.06 -0.11,0.05 -0.11,0.05 -0.11,0.04 -0.12,0.04 -0.11,0.03 -0.12,0.03 -0.12,0.03 -0.11,0.01 -0.12,0.02 -0.12,0.01 h -0.11 c -1.42,0 -2.08,-1.38 -2.47,-2.55 l -4,-11.59 c -0.11,-0.3 -0.38,-0.99 -0.38,-1.35 0,-0.32 0.22,-0.81 0.6,-0.81 0.58,0 1.23,0.81 1.51,1.25 l 6.27,9.92 c 0.5,0.8 1.09,1.86 1.09,2.88 z"
           id="path1976"
           inkscape:connector-curvature="0"
           style="fill:#808080;fill-opacity:1;stroke-width:0" /><path
           d="m 507.51,446.36 v 0.04 0.04 0.04 0.04 0.04 0.04 l -0.01,0.04 v 0.03 0.04 0.03 0.03 0.03 l -0.01,0.03 v 0.03 0.03 l -0.01,0.02 v 0.03 l -0.01,0.02 v 0.02 l -0.01,0.03 -0.01,0.04 -0.01,0.04 -0.02,0.03 -0.02,0.03 -0.02,0.03 -0.03,0.03 -0.02,0.02 -0.03,0.02 -0.04,0.01 -0.04,0.02 -0.04,0.01 -0.04,0.01 -0.05,0.01 -0.02,0.01 h -0.03 -0.03 l -0.03,0.01 h -0.03 -0.03 -0.03 -0.03 l -0.04,0.01 h -0.03 -0.04 -0.04 -0.03 -0.05 -0.04 -0.04 -0.04 -0.05 c -2.23,-2.2 -5.39,-2.23 -6.83,-2.23 v -1.25 c 0.85,0 3.14,0 5.05,0.96 v -17.76 c 0,-1.16 0,-1.61 -3.48,-1.61 h -1.32 v -1.25 c 0.63,0.03 4.91,0.14 6.21,0.14 1.07,0 5.46,-0.11 6.23,-0.14 v 1.25 h -1.33 c -3.48,0 -3.48,0.45 -3.48,1.61 z"
           id="path1978"
           inkscape:connector-curvature="0"
           style="fill:#808080;fill-opacity:1;stroke-width:0" /></g>    </g>
    <g
       id="g4992"
       inkscape:transform-center-x="-87.416032"
       transform="rotate(-14.214407,198.63118,374.95974)"
       inkscape:transform-center-y="-20.358837"
       style="opacity:1;stroke:#dcdcdc">
      <g
         id="g4963"
         style="stroke:#dcdcdc">
        <rect
           style="opacity:1;vector-effect:none;fill:none;fill-opacity:1;stroke:#dcdcdc;stroke-width:1.20000005;stroke-linecap:butt;stroke-linejoin:miter;stroke-miterlimit:4;stroke-dasharray:none;stroke-dashoffset:0;stroke-opacity:1"
           id="rect4905"
           width="188.15775"
           height="4.7132621"
           x="105.0945"
           y="146.82489"
           inkscape:transform-center-x="-95.147951"
           transform="matrix(0.99999998,1.7753015e-4,-3.8589981e-4,0.99999993,0,0)"
           inkscape:transform-center-y="0.016901959" />
        <g
           id="g4946"
           transform="translate(0,38.55363)"
           style="stroke:#dcdcdc">
          <path
             inkscape:connector-curvature="0"
             id="path4907"
             d="m 290.94718,109.25696 -1.60856,1.45084"
             style="fill:none;stroke:#dcdcdc;stroke-width:0.26458332px;stroke-linecap:butt;stroke-linejoin:miter;stroke-opacity:1" />
          <use
             style="stroke:#dcdcdc;stroke-width:2.03414488"
             height="100%"
             width="100%"
             transform="translate(-1.0583333)"
             id="use4909"
             xlink:href="#path4907"
             y="0"
             x="0" />
          <use
             style="stroke:#dcdcdc;stroke-width:2.03414488"
             height="100%"
             width="100%"
             transform="translate(-1.0583333)"
             id="use4911"
             xlink:href="#use4909"
             y="0"
             x="0" />
          <use
             style="stroke:#dcdcdc;stroke-width:2.03414488"
             height="100%"
             width="100%"
             transform="translate(-1.0583333)"
             id="use4913"
             xlink:href="#use4911"
             y="0"
             x="0" />
          <use
             style="stroke:#dcdcdc;stroke-width:2.03414488"
             height="100%"
             width="100%"
             transform="translate(-1.0583333)"
             id="use4915"
             xlink:href="#use4913"
             y="0"
             x="0" />
          <use
             style="stroke:#dcdcdc;stroke-width:2.03414488"
             height="100%"
             width="100%"
             transform="translate(-1.0583333)"
             id="use4917"
             xlink:href="#use4915"
             y="0"
             x="0" />
          <use
             style="stroke:#dcdcdc;stroke-width:2.03414488"
             height="100%"
             width="100%"
             transform="translate(-1.0583333)"
             id="use4919"
             xlink:href="#use4917"
             y="0"
             x="0" />
          <use
             style="stroke:#dcdcdc;stroke-width:2.03414488"
             height="100%"
             width="100%"
             transform="translate(-6.3499997)"
             id="use4921"
             xlink:href="#use4909"
             y="0"
             x="0" />
          <use
             style="stroke:#dcdcdc;stroke-width:2.03414488"
             height="100%"
             width="100%"
             transform="translate(-6.3499997)"
             id="use4923"
             xlink:href="#use4911"
             y="0"
             x="0" />
          <use
             style="stroke:#dcdcdc;stroke-width:2.03414488"
             height="100%"
             width="100%"
             transform="translate(-6.3499997)"
             id="use4925"
             xlink:href="#use4913"
             y="0"
             x="0" />
          <use
             style="stroke:#dcdcdc;stroke-width:2.03414488"
             height="100%"
             width="100%"
             transform="translate(-6.3499997)"
             id="use4927"
             xlink:href="#use4915"
             y="0"
             x="0" />
          <use
             style="stroke:#dcdcdc;stroke-width:2.03414488"
             height="100%"
             width="100%"
             transform="translate(-6.3499997)"
             id="use4929"
             xlink:href="#use4917"
             y="0"
             x="0" />
          <use
             style="stroke:#dcdcdc;stroke-width:2.03414488"
             height="100%"
             width="100%"
             transform="translate(-6.3499997)"
             id="use4931"
             xlink:href="#use4919"
             y="0"
             x="0" />
        </g>
      </g>
      <g
         style="fill:#ffffff;stroke:#dcdcdc;stroke-width:1.93960965"
         transform="matrix(0.47772687,0.1938738,-0.1938738,0.47772687,83.561917,58.267384)"
         id="g4903">
        <path
           style="fill:#ffffff;stroke:#dcdcdc;stroke-width:1.93960965;stroke-linecap:butt;stroke-linejoin:miter;stroke-miterlimit:4;stroke-dasharray:none;stroke-opacity:1"
           d="m 101.55891,139.96841 v -6.87145 h 6.88219 v 7.13871"
           id="path27"
           inkscape:connector-curvature="0"
           sodipodi:nodetypes="cccc"
           inkscape:tile-cx="105"
           inkscape:tile-cy="136.66631"
           inkscape:tile-w="8.8821898"
           inkscape:tile-h="8.1387098"
           inkscape:tile-x0="100.55891"
           inkscape:tile-y0="132.09696"
           inkscape:transform-center-y="-11.87872" />
        <use
           style="fill:#ffffff;stroke:#dcdcdc;stroke-width:1.93960965"
           x="0"
           y="0"
           xlink:href="#path27"
           id="use4879"
           transform="rotate(-45,105,148.54502)"
           width="100%"
           height="100%"
           inkscape:transform-center-x="8.3995143"
           inkscape:transform-center-y="-8.4940221" />
        <use
           style="fill:#ffffff;stroke:#dcdcdc;stroke-width:1.93960965"
           x="0"
           y="0"
           xlink:href="#use4879"
           inkscape:transform-center-x="11.878724"
           inkscape:transform-center-y="-1.4170217e-05"
           id="use4881"
           transform="rotate(-45,105,148.54504)"
           width="100%"
           height="100%" />
        <use
           style="fill:#ffffff;stroke:#dcdcdc;stroke-width:1.93960965"
           x="0"
           y="0"
           xlink:href="#use4881"
           inkscape:transform-center-x="8.4940319"
           inkscape:transform-center-y="8.3995143"
           id="use4883"
           transform="rotate(-45,105,148.54504)"
           width="100%"
           height="100%" />
        <use
           style="fill:#ffffff;stroke:#dcdcdc;stroke-width:1.93960965"
           x="0"
           y="0"
           xlink:href="#use4883"
           inkscape:transform-center-x="2.3970217e-05"
           inkscape:transform-center-y="11.878724"
           id="use4885"
           transform="rotate(-45,105,148.54504)"
           width="100%"
           height="100%" />
        <use
           style="fill:#ffffff;stroke:#dcdcdc;stroke-width:1.93960965"
           x="0"
           y="0"
           xlink:href="#use4885"
           inkscape:transform-center-x="-8.3995045"
           inkscape:transform-center-y="8.4940319"
           id="use4887"
           transform="rotate(-45,105,148.54504)"
           width="100%"
           height="100%" />
        <use
           style="fill:#ffffff;stroke:#dcdcdc;stroke-width:1.93960965"
           x="0"
           y="0"
           xlink:href="#use4887"
           inkscape:transform-center-x="-11.878714"
           inkscape:transform-center-y="2.3970217e-05"
           id="use4889"
           transform="rotate(-45,105,148.54504)"
           width="100%"
           height="100%" />
        <use
           style="fill:#ffffff;stroke:#dcdcdc;stroke-width:1.93960965"
           x="0"
           y="0"
           xlink:href="#use4889"
           inkscape:transform-center-x="-8.4940249"
           inkscape:transform-center-y="-8.3994974"
           id="use4891"
           transform="rotate(-45,105.00001,148.54504)"
           width="100%"
           height="100%" />
        <circle
           style="opacity:1;vector-effect:none;fill:#ffffff;fill-opacity:1;stroke:#dcdcdc;stroke-width:1.93960965;stroke-linecap:butt;stroke-linejoin:miter;stroke-miterlimit:4;stroke-dasharray:none;stroke-dashoffset:0;stroke-opacity:1"
           id="path10-2"
           cx="105"
           cy="148.5"
           r="9" />
        <circle
           style="opacity:1;vector-effect:none;fill:#000000;fill-opacity:1;stroke:#dcdcdc;stroke-width:2.05275345;stroke-linecap:butt;stroke-linejoin:miter;stroke-miterlimit:4;stroke-dasharray:none;stroke-dashoffset:0;stroke-opacity:1"
           id="path10"
           cx="105"
           cy="148.5"
           r="3.7509785" />
      </g>
    </g>
    <g
       id="g5346"
       transform="matrix(1.3564912,0,0,1.3564912,-58.342949,-24.324608)"
       style="fill:#d3d3d3;stroke-width:0.73719609">
      <g
         inkscape:transform-center-y="-81.973967"
         id="g5295"
         style="fill:#d3d3d3;stroke-width:0.73719609">
        <path
           inkscape:connector-curvature="0"
           id="path4994"
           d="m 81.634766,-26.298828 a 0.50005,0.50005 0 0 0 -0.492188,0.507812 V 163.19727 a 0.50005,0.50005 0 1 0 1,0 V -25.791016 a 0.50005,0.50005 0 0 0 -0.507812,-0.507812 z"
           style="color:#000000;font-style:normal;font-variant:normal;font-weight:normal;font-stretch:normal;font-size:medium;line-height:normal;font-family:sans-serif;font-variant-ligatures:normal;font-variant-position:normal;font-variant-caps:normal;font-variant-numeric:normal;font-variant-alternates:normal;font-feature-settings:normal;text-indent:0;text-align:start;text-decoration:none;text-decoration-line:none;text-decoration-style:solid;text-decoration-color:#000000;letter-spacing:normal;word-spacing:normal;text-transform:none;writing-mode:lr-tb;direction:ltr;text-orientation:mixed;dominant-baseline:auto;baseline-shift:baseline;text-anchor:start;white-space:normal;shape-padding:0;clip-rule:nonzero;display:inline;overflow:visible;visibility:visible;opacity:1;isolation:auto;mix-blend-mode:normal;color-interpolation:sRGB;color-interpolation-filters:linearRGB;solid-color:#000000;solid-opacity:1;vector-effect:none;fill:#d3d3d3;fill-opacity:1;fill-rule:nonzero;stroke:none;stroke-width:0.73719609;stroke-linecap:round;stroke-linejoin:miter;stroke-miterlimit:4;stroke-dasharray:none;stroke-dashoffset:0;stroke-opacity:1;color-rendering:auto;image-rendering:auto;shape-rendering:auto;text-rendering:auto;enable-background:accumulate" />
        <path
           inkscape:connector-curvature="0"
           id="path5301"
           style="fill:#d3d3d3;fill-opacity:1;fill-rule:evenodd;stroke:#d3d3d3;stroke-width:0.13822427;stroke-linejoin:round;stroke-opacity:1"
           d="m 80.432735,-23.866091 1.205317,-3.277763 1.205316,3.277764 c -0.711618,-0.52365 -1.685235,-0.520633 -2.410633,-1e-6 z" />
      </g>
      <g
         inkscape:transform-center-x="-81.973972"
         inkscape:transform-center-y="4.7813235e-06"
         id="g5295-0"
         transform="rotate(90,81.638053,150.25424)"
         style="fill:#d3d3d3;stroke-width:0.73719609">
        <path
           inkscape:connector-curvature="0"
           id="path4994-2"
           d="m 81.634766,-26.298828 a 0.50005,0.50005 0 0 0 -0.492188,0.507812 V 163.19727 a 0.50005,0.50005 0 1 0 1,0 V -25.791016 a 0.50005,0.50005 0 0 0 -0.507812,-0.507812 z"
           style="color:#000000;font-style:normal;font-variant:normal;font-weight:normal;font-stretch:normal;font-size:medium;line-height:normal;font-family:sans-serif;font-variant-ligatures:normal;font-variant-position:normal;font-variant-caps:normal;font-variant-numeric:normal;font-variant-alternates:normal;font-feature-settings:normal;text-indent:0;text-align:start;text-decoration:none;text-decoration-line:none;text-decoration-style:solid;text-decoration-color:#000000;letter-spacing:normal;word-spacing:normal;text-transform:none;writing-mode:lr-tb;direction:ltr;text-orientation:mixed;dominant-baseline:auto;baseline-shift:baseline;text-anchor:start;white-space:normal;shape-padding:0;clip-rule:nonzero;display:inline;overflow:visible;visibility:visible;opacity:1;isolation:auto;mix-blend-mode:normal;color-interpolation:sRGB;color-interpolation-filters:linearRGB;solid-color:#000000;solid-opacity:1;vector-effect:none;fill:#d3d3d3;fill-opacity:1;fill-rule:nonzero;stroke:none;stroke-width:0.73719609;stroke-linecap:round;stroke-linejoin:miter;stroke-miterlimit:4;stroke-dasharray:none;stroke-dashoffset:0;stroke-opacity:1;color-rendering:auto;image-rendering:auto;shape-rendering:auto;text-rendering:auto;enable-background:accumulate" />
        <path
           inkscape:connector-curvature="0"
           id="path5301-8"
           style="fill:#d3d3d3;fill-opacity:1;fill-rule:evenodd;stroke:#d3d3d3;stroke-width:0.13822427;stroke-linejoin:round;stroke-opacity:1"
           d="m 80.432735,-23.866091 1.205317,-3.277763 1.205316,3.277764 c -0.711618,-0.52365 -1.685235,-0.520633 -2.410633,-1e-6 z" />
      </g>
    </g>
    <g
       id="g5485"
       style="fill:#d3d3d3;fill-opacity:1;stroke-width:0.58098656"
       transform="matrix(1.7212103,0,0,1.7212103,-117.11037,-110.92946)">
      <g
         word-spacing="normal"
         letter-spacing="normal"
         font-size-adjust="none"
         font-stretch="normal"
         font-weight="normal"
         font-variant="normal"
         font-style="normal"
         stroke-miterlimit="10.433"
         xml:space="preserve"
         transform="matrix(0.36996813,0,0,-0.36996813,-64.744422,194.23327)"
         id="g5483"
         style="font-style:normal;font-variant:normal;font-weight:normal;font-stretch:normal;letter-spacing:normal;word-spacing:normal;text-anchor:start;fill:#d3d3d3;fill-opacity:1;fill-rule:evenodd;stroke:#000000;stroke-width:0.27380711;stroke-linecap:butt;stroke-linejoin:miter;stroke-miterlimit:10.43299961;stroke-dasharray:none;stroke-dashoffset:0;stroke-opacity:1"><path
           id="path5481"
           d="m 478.47,432.95 h 1.5 c 0.19,2.69 0.55,4.59 1.23,6.73 -2.23,1.19 -4.23,1.69 -6.56,1.69 -3.64,0 -7.44,-1.55 -10.08,-4.23 -2.14,-2.05 -3.18,-4.58 -3.18,-7.47 0,-4.24 1.9,-6.58 6.07,-7.58 l 4.74,-1.14 c 2.69,-0.66 4.04,-2.39 4.04,-5.24 0,-4.73 -3.54,-8.01 -8.67,-8.01 -2.68,0 -4.59,0.59 -6.78,2.14 v 4.92 h -1.5 c -0.3,-2.73 -0.64,-4.97 -1.19,-7.56 2.44,-1.25 5.08,-1.89 7.72,-1.89 7.72,0 14.35,5.83 14.35,12.55 0,3.93 -2.14,6.03 -7.18,7.12 l -3.23,0.7 c -3.28,0.69 -4.78,2.53 -4.78,5.83 0,4.33 3.34,7.47 7.92,7.47 2.44,0 4.08,-0.64 5.58,-2.23 z"
           style="fill:#d3d3d3;fill-opacity:1;stroke-width:0"
           inkscape:connector-curvature="0" /></g>    </g>
    <path
       style="fill:none;stroke:#808080;stroke-width:0.30000001;stroke-linecap:butt;stroke-linejoin:miter;stroke-miterlimit:4;stroke-dasharray:2.40000003, 2.40000003;stroke-dashoffset:0;stroke-opacity:1"
       d="M 145.36732,15.734671 17.514203,145.3625"
       id="path5763-1"
       inkscape:connector-curvature="0"
       sodipodi:nodetypes="cc" />
    <path
       style="fill:none;stroke:#808080;stroke-width:0.30000001;stroke-linecap:butt;stroke-linejoin:miter;stroke-miterlimit:4;stroke-dasharray:2.40000003, 2.40000003;stroke-dashoffset:0;stroke-opacity:1"
       d="m 149.26569,18.222022 31.66929,31.235711"
       id="path5761-2"
       inkscape:connector-curvature="0"
       sodipodi:nodetypes="cc" />
    <g
       id="g5346-6"
       transform="matrix(0.95255023,-0.96577245,0.96577245,0.95255023,-170.45626,115.26343)"
       style="stroke-width:0.73719609">
      <g
         inkscape:transform-center-y="-81.973967"
         id="g5295-7"
         style="stroke-width:0.73719609">
        <path
           inkscape:connector-curvature="0"
           id="path4994-7"
           d="m 81.634766,-26.298828 a 0.50005,0.50005 0 0 0 -0.492188,0.507812 V 163.19727 a 0.50005,0.50005 0 1 0 1,0 V -25.791016 a 0.50005,0.50005 0 0 0 -0.507812,-0.507812 z"
           style="color:#000000;font-style:normal;font-variant:normal;font-weight:normal;font-stretch:normal;font-size:medium;line-height:normal;font-family:sans-serif;font-variant-ligatures:normal;font-variant-position:normal;font-variant-caps:normal;font-variant-numeric:normal;font-variant-alternates:normal;font-feature-settings:normal;text-indent:0;text-align:start;text-decoration:none;text-decoration-line:none;text-decoration-style:solid;text-decoration-color:#000000;letter-spacing:normal;word-spacing:normal;text-transform:none;writing-mode:lr-tb;direction:ltr;text-orientation:mixed;dominant-baseline:auto;baseline-shift:baseline;text-anchor:start;white-space:normal;shape-padding:0;clip-rule:nonzero;display:inline;overflow:visible;visibility:visible;opacity:1;isolation:auto;mix-blend-mode:normal;color-interpolation:sRGB;color-interpolation-filters:linearRGB;solid-color:#000000;solid-opacity:1;vector-effect:none;fill:#808080;fill-opacity:1;fill-rule:nonzero;stroke:none;stroke-width:0.73719609;stroke-linecap:round;stroke-linejoin:miter;stroke-miterlimit:4;stroke-dasharray:none;stroke-dashoffset:0;stroke-opacity:1;color-rendering:auto;image-rendering:auto;shape-rendering:auto;text-rendering:auto;enable-background:accumulate" />
        <path
           inkscape:connector-curvature="0"
           id="path5301-2"
           style="fill:#808080;fill-opacity:1;fill-rule:evenodd;stroke:#808080;stroke-width:0.13822427;stroke-linejoin:round;stroke-opacity:1"
           d="m 80.432735,-23.866091 1.205317,-3.277763 1.205316,3.277764 c -0.711618,-0.52365 -1.685235,-0.520633 -2.410633,-1e-6 z" />
      </g>
      <g
         inkscape:transform-center-x="-81.973972"
         inkscape:transform-center-y="4.7813235e-06"
         id="g5295-0-9"
         transform="rotate(90,81.638053,150.25424)"
         style="stroke-width:0.73719609">
        <path
           inkscape:connector-curvature="0"
           id="path4994-2-7"
           d="m 81.634766,-26.298828 a 0.50005,0.50005 0 0 0 -0.492188,0.507812 V 163.19727 a 0.50005,0.50005 0 1 0 1,0 V -25.791016 a 0.50005,0.50005 0 0 0 -0.507812,-0.507812 z"
           style="color:#000000;font-style:normal;font-variant:normal;font-weight:normal;font-stretch:normal;font-size:medium;line-height:normal;font-family:sans-serif;font-variant-ligatures:normal;font-variant-position:normal;font-variant-caps:normal;font-variant-numeric:normal;font-variant-alternates:normal;font-feature-settings:normal;text-indent:0;text-align:start;text-decoration:none;text-decoration-line:none;text-decoration-style:solid;text-decoration-color:#000000;letter-spacing:normal;word-spacing:normal;text-transform:none;writing-mode:lr-tb;direction:ltr;text-orientation:mixed;dominant-baseline:auto;baseline-shift:baseline;text-anchor:start;white-space:normal;shape-padding:0;clip-rule:nonzero;display:inline;overflow:visible;visibility:visible;opacity:1;isolation:auto;mix-blend-mode:normal;color-interpolation:sRGB;color-interpolation-filters:linearRGB;solid-color:#000000;solid-opacity:1;vector-effect:none;fill:#808080;fill-opacity:1;fill-rule:nonzero;stroke:none;stroke-width:0.73719609;stroke-linecap:round;stroke-linejoin:miter;stroke-miterlimit:4;stroke-dasharray:none;stroke-dashoffset:0;stroke-opacity:1;color-rendering:auto;image-rendering:auto;shape-rendering:auto;text-rendering:auto;enable-background:accumulate" />
        <path
           inkscape:connector-curvature="0"
           id="path5301-8-4"
           style="fill:#808080;fill-opacity:1;fill-rule:evenodd;stroke:#808080;stroke-width:0.13822427;stroke-linejoin:round;stroke-opacity:1"
           d="m 80.432735,-23.866091 1.205317,-3.277763 1.205316,3.277764 c -0.711618,-0.52365 -1.685235,-0.520633 -2.410633,-1e-6 z" />
      </g>
    </g>
    <g
       id="g4992-2"
       inkscape:transform-center-x="-44.965882"
       transform="rotate(-59.214407,105.01924,210.71102)"
       inkscape:transform-center-y="-77.48407"
       style="opacity:1">
      <g
         id="g4963-1">
        <rect
           style="opacity:1;vector-effect:none;fill:none;fill-opacity:1;stroke:#000000;stroke-width:1.20000005;stroke-linecap:butt;stroke-linejoin:miter;stroke-miterlimit:4;stroke-dasharray:none;stroke-dashoffset:0;stroke-opacity:1"
           id="rect4905-4"
           width="188.15775"
           height="4.7132621"
           x="105.0945"
           y="146.82489"
           inkscape:transform-center-x="-95.147951"
           transform="matrix(0.99999998,1.7753015e-4,-3.8589981e-4,0.99999993,0,0)"
           inkscape:transform-center-y="0.016901959" />
        <g
           id="g4946-1"
           transform="translate(0,38.55363)">
          <path
             inkscape:connector-curvature="0"
             id="path4907-3"
             d="m 290.94718,109.25696 -1.60856,1.45084"
             style="fill:none;stroke:#000000;stroke-width:0.26458332px;stroke-linecap:butt;stroke-linejoin:miter;stroke-opacity:1" />
          <use
             style="stroke-width:2.03414488"
             height="100%"
             width="100%"
             transform="translate(-1.0583333)"
             id="use4909-7"
             xlink:href="#path4907-3"
             y="0"
             x="0" />
          <use
             style="stroke-width:2.03414488"
             height="100%"
             width="100%"
             transform="translate(-1.0583333)"
             id="use4911-4"
             xlink:href="#use4909-7"
             y="0"
             x="0" />
          <use
             style="stroke-width:2.03414488"
             height="100%"
             width="100%"
             transform="translate(-1.0583333)"
             id="use4913-4"
             xlink:href="#use4911-4"
             y="0"
             x="0" />
          <use
             style="stroke-width:2.03414488"
             height="100%"
             width="100%"
             transform="translate(-1.0583333)"
             id="use4915-5"
             xlink:href="#use4913-4"
             y="0"
             x="0" />
          <use
             style="stroke-width:2.03414488"
             height="100%"
             width="100%"
             transform="translate(-1.0583333)"
             id="use4917-3"
             xlink:href="#use4915-5"
             y="0"
             x="0" />
          <use
             style="stroke-width:2.03414488"
             height="100%"
             width="100%"
             transform="translate(-1.0583333)"
             id="use4919-9"
             xlink:href="#use4917-3"
             y="0"
             x="0" />
          <use
             style="stroke-width:2.03414488"
             height="100%"
             width="100%"
             transform="translate(-6.3499997)"
             id="use4921-3"
             xlink:href="#use4909-7"
             y="0"
             x="0" />
          <use
             style="stroke-width:2.03414488"
             height="100%"
             width="100%"
             transform="translate(-6.3499997)"
             id="use4923-1"
             xlink:href="#use4911-4"
             y="0"
             x="0" />
          <use
             style="stroke-width:2.03414488"
             height="100%"
             width="100%"
             transform="translate(-6.3499997)"
             id="use4925-5"
             xlink:href="#use4913-4"
             y="0"
             x="0" />
          <use
             style="stroke-width:2.03414488"
             height="100%"
             width="100%"
             transform="translate(-6.3499997)"
             id="use4927-7"
             xlink:href="#use4915-5"
             y="0"
             x="0" />
          <use
             style="stroke-width:2.03414488"
             height="100%"
             width="100%"
             transform="translate(-6.3499997)"
             id="use4929-9"
             xlink:href="#use4917-3"
             y="0"
             x="0" />
          <use
             style="stroke-width:2.03414488"
             height="100%"
             width="100%"
             transform="translate(-6.3499997)"
             id="use4931-3"
             xlink:href="#use4919-9"
             y="0"
             x="0" />
        </g>
      </g>
      <g
         style="fill:#ffffff;stroke-width:1.93960965"
         transform="matrix(0.47772687,0.1938738,-0.1938738,0.47772687,83.561917,58.267384)"
         id="g4903-8">
        <path
           style="fill:#ffffff;stroke:#000000;stroke-width:1.93960965;stroke-linecap:butt;stroke-linejoin:miter;stroke-miterlimit:4;stroke-dasharray:none;stroke-opacity:1"
           d="m 101.55891,139.96841 v -6.87145 h 6.88219 v 7.13871"
           id="path27-2"
           inkscape:connector-curvature="0"
           sodipodi:nodetypes="cccc"
           inkscape:tile-cx="105"
           inkscape:tile-cy="136.66631"
           inkscape:tile-w="8.8821898"
           inkscape:tile-h="8.1387098"
           inkscape:tile-x0="100.55891"
           inkscape:tile-y0="132.09696"
           inkscape:transform-center-y="-11.87872" />
        <use
           style="fill:#ffffff;stroke-width:1.93960965"
           x="0"
           y="0"
           xlink:href="#path27-2"
           id="use4879-9"
           transform="rotate(-45,105,148.54502)"
           width="100%"
           height="100%"
           inkscape:transform-center-x="8.3995143"
           inkscape:transform-center-y="-8.4940221" />
        <use
           style="fill:#ffffff;stroke-width:1.93960965"
           x="0"
           y="0"
           xlink:href="#use4879-9"
           inkscape:transform-center-x="11.878724"
           inkscape:transform-center-y="-1.4170217e-05"
           id="use4881-3"
           transform="rotate(-45,105,148.54504)"
           width="100%"
           height="100%" />
        <use
           style="fill:#ffffff;stroke-width:1.93960965"
           x="0"
           y="0"
           xlink:href="#use4881-3"
           inkscape:transform-center-x="8.4940319"
           inkscape:transform-center-y="8.3995143"
           id="use4883-9"
           transform="rotate(-45,105,148.54504)"
           width="100%"
           height="100%" />
        <use
           style="fill:#ffffff;stroke-width:1.93960965"
           x="0"
           y="0"
           xlink:href="#use4883-9"
           inkscape:transform-center-x="2.3970217e-05"
           inkscape:transform-center-y="11.878724"
           id="use4885-7"
           transform="rotate(-45,105,148.54504)"
           width="100%"
           height="100%" />
        <use
           style="fill:#ffffff;stroke-width:1.93960965"
           x="0"
           y="0"
           xlink:href="#use4885-7"
           inkscape:transform-center-x="-8.3995045"
           inkscape:transform-center-y="8.4940319"
           id="use4887-7"
           transform="rotate(-45,105,148.54504)"
           width="100%"
           height="100%" />
        <use
           style="fill:#ffffff;stroke-width:1.93960965"
           x="0"
           y="0"
           xlink:href="#use4887-7"
           inkscape:transform-center-x="-11.878714"
           inkscape:transform-center-y="2.3970217e-05"
           id="use4889-1"
           transform="rotate(-45,105,148.54504)"
           width="100%"
           height="100%" />
        <use
           style="fill:#ffffff;stroke-width:1.93960965"
           x="0"
           y="0"
           xlink:href="#use4889-1"
           inkscape:transform-center-x="-8.4940249"
           inkscape:transform-center-y="-8.3994974"
           id="use4891-3"
           transform="rotate(-45,105.00001,148.54504)"
           width="100%"
           height="100%" />
        <circle
           style="opacity:1;vector-effect:none;fill:#ffffff;fill-opacity:1;stroke:#000000;stroke-width:1.93960965;stroke-linecap:butt;stroke-linejoin:miter;stroke-miterlimit:4;stroke-dasharray:none;stroke-dashoffset:0;stroke-opacity:1"
           id="path10-2-4"
           cx="105"
           cy="148.5"
           r="9" />
        <circle
           style="opacity:1;vector-effect:none;fill:#000000;fill-opacity:1;stroke:none;stroke-width:2.05275345;stroke-linecap:butt;stroke-linejoin:miter;stroke-miterlimit:4;stroke-dasharray:none;stroke-dashoffset:0;stroke-opacity:1"
           id="path10-3"
           cx="105"
           cy="148.5"
           r="3.7509785" />
      </g>
    </g>
    <path
       style="opacity:1;vector-effect:none;fill:none;fill-opacity:1;stroke:#000000;stroke-width:1;stroke-linecap:round;stroke-linejoin:miter;stroke-miterlimit:4;stroke-dasharray:none;stroke-dashoffset:0;stroke-opacity:1;marker-start:url(#Arrow2Mstart)"
       id="path6616"
       sodipodi:type="arc"
       sodipodi:cx="-152.47531"
       sodipodi:cy="-108.56681"
       sodipodi:rx="15.618003"
       sodipodi:ry="15.62393"
       sodipodi:start="0"
       sodipodi:end="4.3212517"
       d="m -136.85731,-108.56681 a 15.618003,15.62393 0 0 1 -13.5875,15.491324 15.618003,15.62393 0 0 1 -17.12053,-11.463274 15.618003,15.62393 0 0 1 9.13582,-18.472"
       sodipodi:open="true"
       inkscape:transform-center-x="-1.4089581"
       inkscape:transform-center-y="0.31999793"
       transform="rotate(-141.6336)" />
    <g
       style="fill:#808080;fill-opacity:1;stroke-width:0.58165145"
       transform="matrix(1.7192427,0,0,1.7192427,-287.99426,-55.827299)"
       id="g2003">
      <g
         style="font-style:normal;font-variant:normal;font-weight:normal;font-stretch:normal;letter-spacing:normal;word-spacing:normal;text-anchor:start;fill:#808080;fill-opacity:1;fill-rule:evenodd;stroke:#000000;stroke-width:0.58165145;stroke-linecap:butt;stroke-linejoin:miter;stroke-miterlimit:10.43299961;stroke-dasharray:none;stroke-dashoffset:0;stroke-opacity:1"
         id="g2001"
         transform="matrix(0.36996813,0,0,-0.36996813,-64.744422,194.23327)"
         xml:space="preserve"
         stroke-miterlimit="10.433"
         font-style="normal"
         font-variant="normal"
         font-weight="normal"
         font-stretch="normal"
         font-size-adjust="none"
         letter-spacing="normal"
         word-spacing="normal"><path
           style="fill:#808080;fill-opacity:1;stroke-width:0"
           inkscape:connector-curvature="0"
           d="m 478.47,432.95 h 1.5 c 0.19,2.69 0.55,4.59 1.23,6.73 -2.23,1.19 -4.23,1.69 -6.56,1.69 -3.64,0 -7.44,-1.55 -10.08,-4.23 -2.14,-2.05 -3.18,-4.58 -3.18,-7.47 0,-4.24 1.9,-6.58 6.07,-7.58 l 4.74,-1.14 c 2.69,-0.66 4.04,-2.39 4.04,-5.24 0,-4.73 -3.54,-8.01 -8.67,-8.01 -2.68,0 -4.59,0.59 -6.78,2.14 v 4.92 h -1.5 c -0.3,-2.73 -0.64,-4.97 -1.19,-7.56 2.44,-1.25 5.08,-1.89 7.72,-1.89 7.72,0 14.35,5.83 14.35,12.55 0,3.93 -2.14,6.03 -7.18,7.12 l -3.23,0.7 c -3.28,0.69 -4.78,2.53 -4.78,5.83 0,4.33 3.34,7.47 7.92,7.47 2.44,0 4.08,-0.64 5.58,-2.23 z"
           id="path1997" /><path
           style="fill:#808080;fill-opacity:1;stroke-width:0"
           inkscape:connector-curvature="0"
           d="m 495.83,439.95 v 0.12 l -0.01,0.12 -0.02,0.12 -0.03,0.11 -0.03,0.11 -0.04,0.11 -0.05,0.11 -0.05,0.1 -0.06,0.11 -0.07,0.09 -0.07,0.1 -0.07,0.09 -0.08,0.09 -0.09,0.08 -0.09,0.08 -0.09,0.08 -0.09,0.07 -0.1,0.07 -0.11,0.06 -0.1,0.06 -0.11,0.06 -0.11,0.05 -0.11,0.05 -0.11,0.04 -0.12,0.04 -0.11,0.03 -0.12,0.03 -0.12,0.03 -0.11,0.01 -0.12,0.02 -0.12,0.01 h -0.11 c -1.42,0 -2.08,-1.38 -2.47,-2.55 l -4,-11.59 c -0.11,-0.3 -0.38,-0.99 -0.38,-1.35 0,-0.32 0.22,-0.81 0.6,-0.81 0.58,0 1.23,0.81 1.51,1.25 l 6.27,9.92 c 0.5,0.8 1.09,1.86 1.09,2.88 z"
           id="path1999" /></g>    </g>
    <path
       sodipodi:nodetypes="cc"
       inkscape:connector-curvature="0"
       id="path8476"
       d="M 212.60987,118.87975 C 212.34738,79.061686 205.08334,51.729188 161.26373,31.50568"
       style="fill:none;stroke:#000000;stroke-width:1;stroke-linecap:round;stroke-linejoin:miter;stroke-miterlimit:4;stroke-dasharray:none;stroke-opacity:1;marker-end:url(#marker8494-3)" />
    <g
       id="g9641"
       transform="translate(103.16604,20.312484)">
      <g
         word-spacing="normal"
         letter-spacing="normal"
         font-size-adjust="none"
         font-stretch="normal"
         font-weight="normal"
         font-variant="normal"
         font-style="normal"
         stroke-miterlimit="10.433"
         xml:space="preserve"
         transform="matrix(0.36996813,0,0,-0.36996813,-64.744422,194.23327)"
         id="content"
         style="font-style:normal;font-variant:normal;font-weight:normal;font-stretch:normal;letter-spacing:normal;word-spacing:normal;text-anchor:start;fill:none;fill-opacity:1;fill-rule:evenodd;stroke:#000000;stroke-linecap:butt;stroke-linejoin:miter;stroke-miterlimit:10.43299961;stroke-dasharray:none;stroke-dashoffset:0;stroke-opacity:1"><path
           id="path9632"
           d="m 470.73,438.39 5.28,0.2 c 3.1,0 5.08,-0.45 5.13,-1.2 l 0.4,-4.44 h 1.19 c 0.16,3.14 0.5,5.69 1.05,7.58 -1.1,0.09 -2.49,0.14 -3.33,0.14 l -2.05,-0.05 -8.22,-0.09 h -1.45 c -1.23,0 -3.23,0.04 -5.12,0.09 l -2.44,0.05 -0.16,-1.39 2.8,-0.1 c 1.19,-0.04 1.73,-0.5 1.73,-1.34 0,-0.7 -0.18,-2.3 -0.43,-3.8 l -3.75,-21.61 c -0.85,-4.59 -0.85,-4.64 -2.88,-4.84 l -1.8,-0.14 -0.2,-1.41 1.69,0.07 c 2,0.04 3.59,0.09 4.64,0.09 0.89,0 2.34,-0.05 4.28,-0.09 l 2.59,-0.07 0.16,1.41 -3.2,0.14 c -1.35,0.05 -1.78,0.45 -1.78,1.45 0,0.3 0.04,0.85 0.09,1.05 l 1.8,11.11 h 5.82 c 1.35,0 2.89,-0.05 5.29,-0.16 l 1.29,-0.04 0.94,2.23 -0.19,0.36 c -4.04,-0.2 -7.03,-0.3 -10.92,-0.3 h -1.84 l 2.29,13.5 c 0.16,0.8 0.21,1.05 0.46,1.6 z"
           inkscape:connector-curvature="0"
           style="fill:#000000;stroke-width:0" /><path
           id="path9634"
           d="m 501.38,443.81 -0.7,-0.47 -0.68,-0.5 -0.67,-0.51 -0.64,-0.53 -0.63,-0.56 -0.61,-0.57 -0.59,-0.59 -0.57,-0.62 -0.55,-0.63 -0.53,-0.65 -0.51,-0.67 -0.49,-0.69 -0.47,-0.7 -0.45,-0.72 -0.42,-0.74 -0.41,-0.76 -0.38,-0.78 -0.36,-0.79 -0.33,-0.81 -0.31,-0.82 -0.29,-0.84 -0.27,-0.85 -0.24,-0.87 -0.22,-0.89 -0.19,-0.9 -0.17,-0.92 -0.15,-0.93 -0.11,-0.94 -0.1,-0.96 -0.06,-0.97 -0.04,-0.98 -0.02,-1 c 0,-9.76 4.74,-19.08 12.02,-24.06 l 0.64,0.84 c -6.92,5.99 -8.13,11.82 -8.13,23.43 0,11.6 1.36,17.62 8.13,23.1 z"
           inkscape:connector-curvature="0"
           style="fill:#000000;stroke-width:0" /><path
           id="path9636"
           d="m 506,410.59 v -0.18 -0.18 l -0.01,-0.17 -0.01,-0.18 -0.01,-0.17 -0.01,-0.17 -0.02,-0.17 -0.02,-0.18 -0.03,-0.19 -0.01,-0.1 -0.02,-0.09 -0.01,-0.11 -0.02,-0.1 -0.02,-0.11 -0.02,-0.11 -0.02,-0.12 -0.02,-0.11 -0.02,-0.13 -0.02,-0.12 -0.03,-0.14 -0.03,-0.13 -0.02,-0.14 -0.03,-0.15 c -0.1,-0.59 -0.14,-0.73 -0.19,-1.09 0.75,-0.39 1.55,-0.6 2.14,-0.6 1.64,0 3.58,1.44 5.13,3.78 l 3.79,5.83 0.55,-3.44 c 0.64,-4.23 1.78,-6.17 3.58,-6.17 1.09,0 2.68,0.85 4.28,2.3 l 2.45,2.19 -0.45,0.93 c -1.8,-1.48 -3.05,-2.23 -3.85,-2.23 -0.73,0 -1.38,0.5 -1.88,1.5 -0.44,0.94 -0.99,2.78 -1.24,4.23 l -0.91,5.04 1.75,2.43 c 2.35,3.24 3.69,4.39 5.24,4.39 0.79,0 1.39,-0.4 1.64,-1.15 l 0.69,0.2 0.75,4.23 c -0.6,0.35 -1.05,0.5 -1.49,0.5 -2,0 -3.98,-1.79 -7.08,-6.37 l -1.84,-2.75 -0.3,2.39 c -0.61,4.94 -1.95,6.73 -4.89,6.73 -1.29,0 -2.39,-0.4 -2.84,-1.04 l -2.88,-4.14 0.85,-0.5 c 1.48,1.7 2.48,2.39 3.43,2.39 1.65,0 2.74,-2.03 3.58,-6.92 l 0.55,-3.08 -1.98,-3.1 c -2.15,-3.34 -3.85,-4.93 -5.24,-4.93 -0.75,0 -1.3,0.2 -1.39,0.45 l -0.55,1.39 z"
           inkscape:connector-curvature="0"
           style="fill:#000000;stroke-width:0" /><path
           id="path9638"
           d="m 534.41,443.81 -0.5,-0.85 c 6.78,-5.48 8.12,-11.5 8.12,-23.1 0,-11.61 -1.2,-17.44 -8.12,-23.43 l 0.64,-0.84 c 7.28,4.98 12.01,14.3 12.01,24.06 0,10.71 -4.58,19.24 -12.15,24.16 z"
           inkscape:connector-curvature="0"
           style="fill:#000000;stroke-width:0" /></g>    </g>
    <path
       sodipodi:nodetypes="cc"
       inkscape:connector-curvature="0"
       id="path2383"
       d="M -64.220043,44.980007 C -25.197772,-10.387381 5.0445749,-5.0551171 39.99344,-3.9172412"
       style="fill:none;fill-opacity:1;stroke:#808080;stroke-width:1;stroke-linecap:butt;stroke-linejoin:miter;stroke-miterlimit:4;stroke-dasharray:none;stroke-opacity:1;marker-start:url(#marker1765)" />
    <g
       id="g3868"
       transform="rotate(-43.823447,-152.74934,260.09802)"
       style="fill:#808080;fill-opacity:1">
      <g
         word-spacing="normal"
         letter-spacing="normal"
         font-size-adjust="none"
         font-stretch="normal"
         font-weight="normal"
         font-variant="normal"
         font-style="normal"
         stroke-miterlimit="10.433"
         xml:space="preserve"
         transform="matrix(0.36996813,0,0,-0.36996813,-64.744422,307.48519)"
         id="content-2"
         style="font-style:normal;font-variant:normal;font-weight:normal;font-stretch:normal;letter-spacing:normal;word-spacing:normal;text-anchor:start;fill:#808080;fill-opacity:1;fill-rule:evenodd;stroke:#000000;stroke-linecap:butt;stroke-linejoin:miter;stroke-miterlimit:10.43299961;stroke-dasharray:none;stroke-dashoffset:0;stroke-opacity:1"><path
           id="path3859"
           d="m 478.65,425.28 0.04,0.18 0.04,0.18 0.05,0.19 0.04,0.19 0.05,0.19 0.06,0.19 0.05,0.18 0.06,0.19 0.05,0.18 0.06,0.18 0.06,0.18 0.05,0.16 0.06,0.17 0.06,0.15 0.03,0.08 0.03,0.07 0.02,0.07 0.03,0.06 -0.2,0.35 -0.34,-0.1 c -1.19,-0.29 -1.75,-0.36 -4.19,-0.36 h -0.8 l 1.05,5.6 c 0.79,4.28 2.19,6.17 4.48,6.17 1.5,0 2.85,-0.75 3.6,-1.94 l 0.5,0.19 c 0.25,0.8 0.73,2.34 1.14,3.34 l 0.25,0.75 c -0.8,0.35 -2.35,0.64 -3.49,0.64 -0.54,0 -1.34,-0.14 -1.75,-0.34 -1.19,-0.55 -5.28,-3.59 -6.42,-4.78 -1.09,-1.09 -1.7,-2.59 -2.25,-5.44 l -0.75,-3.94 c -2.03,-0.98 -3.03,-1.39 -4.28,-1.84 l -0.25,-1.09 h 4.05 l -0.46,-2.78 c -1.5,-9.72 -3.34,-18.99 -4.43,-22.43 -0.9,-2.93 -2.4,-4.48 -4.19,-4.48 -1.14,0 -1.69,0.34 -2.6,1.44 l -0.68,-0.19 c -0.21,-1.16 -0.91,-3.55 -1.16,-4 0.45,-0.23 1.2,-0.39 1.75,-0.39 2.05,0 4.73,1.55 6.67,3.89 3.05,3.58 4.14,7.06 7.78,24.56 0.14,0.6 0.55,2.49 0.94,4.38 z"
           inkscape:connector-curvature="0"
           style="fill:#808080;fill-opacity:1;stroke-width:0" /><path
           id="path3861"
           d="m 502.46,443.81 -0.7,-0.47 -0.69,-0.5 -0.66,-0.51 -0.65,-0.53 -0.62,-0.56 -0.61,-0.57 -0.59,-0.59 -0.57,-0.62 -0.55,-0.63 -0.53,-0.65 -0.51,-0.67 -0.49,-0.69 -0.47,-0.7 -0.45,-0.72 -0.42,-0.74 -0.41,-0.76 -0.38,-0.78 -0.36,-0.79 -0.33,-0.81 -0.32,-0.82 -0.29,-0.84 -0.26,-0.85 -0.25,-0.87 -0.21,-0.89 -0.2,-0.9 -0.17,-0.92 -0.14,-0.93 -0.12,-0.94 -0.09,-0.96 -0.07,-0.97 -0.04,-0.98 -0.01,-1 c 0,-9.76 4.74,-19.08 12.02,-24.06 l 0.64,0.84 c -6.92,5.99 -8.13,11.82 -8.13,23.43 0,11.6 1.36,17.62 8.13,23.1 z"
           inkscape:connector-curvature="0"
           style="fill:#808080;fill-opacity:1;stroke-width:0" /><path
           id="path3863"
           d="m 507.08,410.59 v -0.18 -0.18 l -0.01,-0.17 -0.01,-0.18 -0.01,-0.17 -0.01,-0.17 -0.02,-0.17 -0.02,-0.18 -0.03,-0.19 -0.01,-0.1 -0.02,-0.09 -0.01,-0.11 -0.02,-0.1 -0.02,-0.11 -0.02,-0.11 -0.02,-0.12 -0.02,-0.11 -0.02,-0.13 -0.03,-0.12 -0.02,-0.14 -0.03,-0.13 -0.03,-0.14 -0.02,-0.15 c -0.1,-0.59 -0.14,-0.73 -0.19,-1.09 0.75,-0.39 1.55,-0.6 2.14,-0.6 1.64,0 3.58,1.44 5.12,3.78 l 3.8,5.83 0.55,-3.44 c 0.64,-4.23 1.78,-6.17 3.58,-6.17 1.09,0 2.68,0.85 4.28,2.3 l 2.45,2.19 -0.45,0.93 c -1.8,-1.48 -3.05,-2.23 -3.85,-2.23 -0.73,0 -1.39,0.5 -1.89,1.5 -0.44,0.94 -0.98,2.78 -1.23,4.23 l -0.91,5.04 1.75,2.43 c 2.35,3.24 3.69,4.39 5.24,4.39 0.79,0 1.39,-0.4 1.64,-1.15 l 0.69,0.2 0.75,4.23 c -0.6,0.35 -1.05,0.5 -1.49,0.5 -2,0 -3.98,-1.79 -7.08,-6.37 l -1.84,-2.75 -0.3,2.39 c -0.61,4.94 -1.95,6.73 -4.89,6.73 -1.3,0 -2.39,-0.4 -2.84,-1.04 l -2.88,-4.14 0.85,-0.5 c 1.48,1.7 2.48,2.39 3.43,2.39 1.64,0 2.74,-2.03 3.58,-6.92 l 0.55,-3.08 -1.99,-3.1 c -2.14,-3.34 -3.84,-4.93 -5.23,-4.93 -0.75,0 -1.3,0.2 -1.39,0.45 l -0.55,1.39 z"
           inkscape:connector-curvature="0"
           style="fill:#808080;fill-opacity:1;stroke-width:0" /><path
           id="path3865"
           d="m 535.48,443.81 -0.5,-0.85 c 6.79,-5.48 8.13,-11.5 8.13,-23.1 0,-11.61 -1.2,-17.44 -8.13,-23.43 l 0.64,-0.84 c 7.29,4.98 12.02,14.3 12.02,24.06 0,10.71 -4.58,19.24 -12.16,24.16 z"
           inkscape:connector-curvature="0"
           style="fill:#808080;fill-opacity:1;stroke-width:0" /></g>    </g>
    <g
       id="g2248"
       transform="matrix(0.92429976,0,0,0.92429976,-96.681416,122.19774)"
       style="fill:#808080;fill-opacity:1;stroke-width:1.08190012">
      <g
         word-spacing="normal"
         letter-spacing="normal"
         font-size-adjust="none"
         font-stretch="normal"
         font-weight="normal"
         font-variant="normal"
         font-style="normal"
         stroke-miterlimit="10.433"
         xml:space="preserve"
         transform="matrix(0.36996813,0,0,-0.36996813,-64.744422,194.23327)"
         id="g2246"
         style="font-style:normal;font-variant:normal;font-weight:normal;font-stretch:normal;letter-spacing:normal;word-spacing:normal;text-anchor:start;fill:#808080;fill-opacity:1;fill-rule:evenodd;stroke:#000000;stroke-width:1.08190012;stroke-linecap:butt;stroke-linejoin:miter;stroke-miterlimit:10.43299961;stroke-dasharray:none;stroke-dashoffset:0;stroke-opacity:1"><polygon
           id="polygon2238"
           points="463.76,436.56 481.74,436.56 481.74,438.11 463.76,438.11 "
           style="fill:#808080;fill-opacity:1;stroke-width:0" /><path
           id="path2240"
           d="m 458.01,410.59 v -0.18 L 458,410.23 v -0.17 l -0.01,-0.18 -0.01,-0.17 -0.02,-0.17 -0.02,-0.17 -0.02,-0.18 -0.02,-0.19 -0.02,-0.1 -0.01,-0.09 -0.02,-0.11 -0.02,-0.1 -0.01,-0.11 -0.02,-0.11 -0.02,-0.12 -0.02,-0.11 -0.03,-0.13 -0.02,-0.12 -0.03,-0.14 -0.02,-0.13 -0.03,-0.14 -0.03,-0.15 c -0.09,-0.59 -0.14,-0.73 -0.19,-1.09 0.75,-0.39 1.55,-0.6 2.14,-0.6 1.65,0 3.58,1.44 5.13,3.78 l 3.8,5.83 0.54,-3.44 c 0.64,-4.23 1.78,-6.17 3.58,-6.17 1.1,0 2.69,0.85 4.28,2.3 l 2.46,2.19 -0.46,0.93 c -1.79,-1.48 -3.04,-2.23 -3.84,-2.23 -0.74,0 -1.39,0.5 -1.89,1.5 -0.44,0.94 -0.99,2.78 -1.24,4.23 l -0.9,5.04 1.75,2.43 c 2.34,3.24 3.69,4.39 5.23,4.39 0.8,0 1.39,-0.4 1.64,-1.15 l 0.69,0.2 0.75,4.23 c -0.59,0.35 -1.05,0.5 -1.48,0.5 -2,0 -3.99,-1.79 -7.08,-6.37 l -1.85,-2.75 -0.29,2.39 c -0.61,4.94 -1.96,6.73 -4.89,6.73 -1.3,0 -2.39,-0.4 -2.85,-1.04 l -2.87,-4.14 0.84,-0.5 c 1.49,1.7 2.49,2.39 3.44,2.39 1.64,0 2.73,-2.03 3.58,-6.92 l 0.54,-3.08 -1.98,-3.1 c -2.14,-3.34 -3.84,-4.93 -5.23,-4.93 -0.75,0 -1.3,0.2 -1.4,0.45 l -0.54,1.39 z"
           inkscape:connector-curvature="0"
           style="fill:#808080;fill-opacity:1;stroke-width:0" /><path
           id="path2242"
           d="m 494.99,439.95 v 0.12 l -0.01,0.12 -0.02,0.12 -0.03,0.11 -0.03,0.11 -0.04,0.11 -0.05,0.11 -0.05,0.1 -0.06,0.11 -0.07,0.09 -0.07,0.1 -0.07,0.09 -0.08,0.09 -0.09,0.08 -0.09,0.08 -0.09,0.08 -0.09,0.07 -0.1,0.07 -0.1,0.06 -0.11,0.06 -0.11,0.06 -0.11,0.05 -0.11,0.05 -0.11,0.04 -0.12,0.04 -0.11,0.03 -0.12,0.03 -0.12,0.03 -0.11,0.01 -0.12,0.02 -0.12,0.01 h -0.11 c -1.42,0 -2.08,-1.38 -2.47,-2.55 l -4,-11.59 c -0.11,-0.3 -0.38,-0.99 -0.38,-1.35 0,-0.32 0.22,-0.81 0.6,-0.81 0.58,0 1.23,0.81 1.51,1.25 l 6.27,9.92 c 0.5,0.8 1.09,1.86 1.09,2.88 z"
           inkscape:connector-curvature="0"
           style="fill:#808080;fill-opacity:1;stroke-width:0" /><path
           id="path2244"
           d="m 513.43,430.54 h -1.19 c -0.09,-0.76 -0.45,-2.83 -0.9,-3.17 -0.27,-0.2 -2.96,-0.2 -3.44,-0.2 h -6.42 c 3.65,3.23 4.87,4.2 6.97,5.84 2.57,2.06 4.98,4.22 4.98,7.53 0,4.22 -3.69,6.8 -8.16,6.8 -4.31,0 -7.25,-3.03 -7.25,-6.23 0,-1.79 1.5,-1.96 1.86,-1.96 0.83,0 1.85,0.6 1.85,1.85 0,0.62 -0.25,1.84 -2.07,1.84 1.08,2.47 3.46,3.23 5.1,3.23 3.48,0 5.29,-2.7 5.29,-5.53 0,-3.03 -2.15,-5.43 -3.28,-6.68 l -8.39,-8.3 c -0.36,-0.31 -0.36,-0.39 -0.36,-1.36 h 14.36 z"
           inkscape:connector-curvature="0"
           style="fill:#808080;fill-opacity:1;stroke-width:0" /></g>    </g>
  </g>
</svg>
